[23/11/2019 22:26:40] !comprar
[23/11/2019 22:27:01] !comprar skilldistance10
[23/11/2019 22:27:02] !comprar skilldistance10
[23/11/2019 22:35:35] !online
[23/11/2019 23:06:29] !comprar
[23/11/2019 23:07:58] !comprar super divine crossbow
[23/11/2019 23:08:16] !comprar super divine crossbow
[23/11/2019 23:17:11] !comprar skilldistance10
[23/11/2019 23:17:17] !comprar skilldistance10
[23/11/2019 23:17:18] !comprar skilldistance10
[23/11/2019 23:17:20] !comprar skilldistance10
[23/11/2019 23:17:35] !comprar skilldistance10
[23/11/2019 23:17:37] !comprar skilldistance10
[23/11/2019 23:17:38] !comprar skilldistance10
[23/11/2019 23:17:39] !comprar skilldistance10
[23/11/2019 23:17:40] !comprar skilldistance10
[23/11/2019 23:17:42] !comprar skilldistance10
[23/11/2019 23:17:43] !comprar skilldistance10
[23/11/2019 23:17:44] !comprar skilldistance10
[23/11/2019 23:17:45] !comprar skilldistance10
[23/11/2019 23:17:46] !comprar skilldistance10
[23/11/2019 23:17:49] !comprar skilldistance10
[23/11/2019 23:17:51] !comprar skilldistance10
[23/11/2019 23:17:52] !comprar skilldistance10
[23/11/2019 23:17:53] !comprar skilldistance10
[23/11/2019 23:17:54] !comprar skilldistance10
[23/11/2019 23:17:55] !comprar skilldistance10
[23/11/2019 23:17:56] !comprar skilldistance10
[23/11/2019 23:20:10] !resetar
[23/11/2019 23:20:41] !resetar
[23/11/2019 23:23:58] !resetar
[23/11/2019 23:34:35] !resetar
[23/11/2019 23:34:40] !resetar
[23/11/2019 23:35:30] !comprar skilldistance10
[23/11/2019 23:35:32] !comprar skilldistance10
[23/11/2019 23:35:33] !comprar skilldistance10
[23/11/2019 23:35:34] !comprar skilldistance10
[23/11/2019 23:39:53] !resetar
[23/11/2019 23:43:36] !comprar skilldistance10
[23/11/2019 23:43:38] !comprar skilldistance10
[23/11/2019 23:49:52] !mana
[23/11/2019 23:49:57] !distance
[23/11/2019 23:54:57] !resetar
[23/11/2019 23:55:23] !comprar skilldistance10
[23/11/2019 23:55:25] !comprar skilldistance10
[23/11/2019 23:56:43] !resetar
[23/11/2019 23:56:52] !resetar
[24/11/2019 00:00:20] !resetar
