[01/12/2019 02:01:09] !comprar skillclub10
[01/12/2019 02:01:11] !comprar skillclub10
[01/12/2019 02:01:13] !comprar skillclub10
[01/12/2019 02:01:16] !comprar skillclub10
[01/12/2019 02:01:17] !comprar skillclub10
[01/12/2019 02:01:19] !comprar skillclub10
[01/12/2019 02:01:20] !comprar skillclub10
[01/12/2019 02:01:22] !comprar skillclub
[01/12/2019 02:01:25] !comprar skillclub
[01/12/2019 02:04:19] !resetar
[01/12/2019 12:12:15] !online
[01/12/2019 12:23:18] !comprar skillclub10
[01/12/2019 12:23:19] !comprar skillclub10
[01/12/2019 12:23:27] !comprar skillclub10
[01/12/2019 12:23:29] !comprar skillclub10
[01/12/2019 12:23:30] !comprar skillclub10
[01/12/2019 12:23:32] !comprar skillclub10
[01/12/2019 12:23:33] !comprar skillclub10
[01/12/2019 12:23:35] !comprar skillclub10
[01/12/2019 12:23:36] !comprar skillclub10
[01/12/2019 12:23:38] !comprar skillclub10
[01/12/2019 12:23:50] !comprar skillclub10
[01/12/2019 12:23:51] !comprar skillclub10
[01/12/2019 12:23:52] !comprar skillclub10
[01/12/2019 12:23:53] !comprar skillclub10
[01/12/2019 12:23:54] !comprar skillclub10
[01/12/2019 12:23:55] !comprar skillclub10
[01/12/2019 12:23:57] !comprar skillclub10
[01/12/2019 12:23:58] !comprar skillclub10
[01/12/2019 12:23:59] !comprar skillclub10
[01/12/2019 12:24:00] !comprar skillclub10
[01/12/2019 12:24:01] !comprar skillclub10
[01/12/2019 12:24:02] !comprar skillclub10
[01/12/2019 12:24:03] !comprar skillclub10
[01/12/2019 12:24:06] !comprar skillclub
[01/12/2019 12:24:08] !comprar skillclub
[01/12/2019 12:24:09] !comprar skillclub
[01/12/2019 12:24:10] !comprar skillclub
[01/12/2019 12:24:11] !comprar skillclub
[01/12/2019 12:26:17] !resetar
[01/12/2019 13:04:13] !resetar
[01/12/2019 13:23:29] !resetar
[01/12/2019 14:57:07] !resetar
