[25/11/2019 21:31:39] !comprar magiclevel5
[25/11/2019 21:31:40] !comprar magiclevel5
[25/11/2019 21:31:41] !comprar magiclevel5
[25/11/2019 21:31:42] !comprar magiclevel5
[25/11/2019 21:31:43] !comprar magiclevel5
[25/11/2019 21:31:44] !comprar magiclevel5
[25/11/2019 21:31:45] !comprar magiclevel5
[25/11/2019 21:32:04] !comprar magiclevel5
[25/11/2019 21:32:05] !comprar magiclevel5
[25/11/2019 21:32:06] !comprar magiclevel5
[25/11/2019 21:32:07] !comprar magiclevel5
[25/11/2019 21:32:08] !comprar magiclevel5
[25/11/2019 21:32:09] !comprar magiclevel5
[25/11/2019 21:32:10] !comprar magiclevel5
[25/11/2019 21:32:11] !comprar magiclevel5
[25/11/2019 21:32:17] !comprar magiclevel5
[25/11/2019 21:32:19] !comprar magiclevel5
[25/11/2019 21:32:20] !comprar magiclevel5
[25/11/2019 21:32:20] !comprar magiclevel5
[25/11/2019 21:32:21] !comprar magiclevel5
[25/11/2019 21:32:30] !comprar magiclevel5
[25/11/2019 21:32:31] !comprar magiclevel5
[25/11/2019 21:32:32] !comprar magiclevel5
[25/11/2019 21:32:32] !comprar magiclevel5
[25/11/2019 21:32:34] !comprar magiclevel5
[25/11/2019 21:32:35] !comprar magiclevel5
[25/11/2019 21:32:36] !comprar magiclevel5
[25/11/2019 21:32:47] !comprar magiclevel5
[25/11/2019 21:32:52] !comprar magiclevel5
[25/11/2019 21:32:53] !comprar magiclevel5
[25/11/2019 21:32:54] !comprar magiclevel5
[25/11/2019 21:32:55] !comprar magiclevel5
[25/11/2019 21:32:55] !comprar magiclevel5
[25/11/2019 21:32:57] !comprar magiclevel5
[25/11/2019 21:32:58] !comprar magiclevel5
[25/11/2019 21:32:59] !comprar magiclevel5
[25/11/2019 21:33:04] !comprar magiclevel5
[25/11/2019 21:33:05] !comprar magiclevel5
[25/11/2019 21:33:06] !comprar magiclevel5
[25/11/2019 21:33:07] !comprar magiclevel5
[25/11/2019 21:33:08] !comprar magiclevel5
[25/11/2019 21:33:09] !comprar magiclevel5
[25/11/2019 21:33:10] !comprar magiclevel5
[25/11/2019 21:33:11] !comprar magiclevel5
[25/11/2019 21:33:12] !comprar magiclevel5
[25/11/2019 21:33:23] !comprar magiclevel5
[25/11/2019 21:33:25] !comprar magiclevel
[25/11/2019 21:33:27] !comprar magiclevel
[25/11/2019 21:33:29] !comprar magiclevel
[25/11/2019 21:33:48] !comprar super divine staff
[25/11/2019 21:43:02] !online
[25/11/2019 22:05:32] !resetar
[25/11/2019 22:06:00] !resetar
[25/11/2019 22:27:32] !resetar
[25/11/2019 22:46:46] !mana Caneta Azul
[25/11/2019 22:48:11] !mana Caneta Azul
[25/11/2019 22:57:07] !comprar limparpk
[25/11/2019 22:58:17] !comprar limparpk
[25/11/2019 22:59:16] !comprar
[25/11/2019 22:59:43] !comprar super divine staff
[25/11/2019 23:00:37] !comprar sd
