[26/11/2019 17:46:53] !comprar skillclub10
[26/11/2019 17:46:54] !comprar skillclub10
[26/11/2019 17:46:55] !comprar skillclub10
[26/11/2019 17:47:01] !comprar skillclub10
[26/11/2019 17:47:01] !comprar skillclub10
[26/11/2019 17:47:02] !comprar skillclub10
[26/11/2019 17:47:04] !comprar skillclub10
[26/11/2019 17:47:13] !comprar skillclub10
[26/11/2019 17:47:14] !comprar skillclub10
[26/11/2019 17:47:15] !comprar skillclub10
[26/11/2019 17:47:16] !comprar skillclub10
[26/11/2019 17:47:17] !comprar skillclub10
[26/11/2019 17:47:18] !comprar skillclub10
[26/11/2019 17:47:19] !comprar skillclub10
[26/11/2019 17:47:20] !comprar skillclub10
[26/11/2019 17:47:22] !comprar skillclub10
[26/11/2019 17:47:23] !comprar skillclub10
[26/11/2019 17:47:24] !comprar skillclub10
[26/11/2019 17:47:25] !comprar skillclub10
[26/11/2019 17:47:26] !comprar skillclub10
[26/11/2019 17:47:27] !comprar skillclub10
[26/11/2019 17:47:28] !comprar skillclub10
[26/11/2019 17:47:29] !comprar skillclub10
[26/11/2019 17:47:30] !comprar skillclub10
[26/11/2019 17:47:31] !comprar skillclub10
[26/11/2019 17:47:31] !comprar skillclub10
[26/11/2019 17:47:33] !comprar skillclub10
[26/11/2019 17:47:35] !comprar skillclub10
[26/11/2019 17:47:36] !comprar skillclub10
[26/11/2019 17:47:38] !comprar skillclub10
[26/11/2019 17:47:39] !comprar skillclub10
[26/11/2019 17:47:40] !comprar skillclub10
[26/11/2019 17:47:41] !comprar skillclub10
[26/11/2019 17:47:43] !club
[26/11/2019 17:47:46] !comprar skillclub
[26/11/2019 17:47:47] !comprar skillclub
[26/11/2019 17:47:48] !comprar skillclub
[26/11/2019 17:47:49] !comprar skillclub
[26/11/2019 17:47:49] !comprar skillclub
[26/11/2019 17:47:50] !comprar skillclub
[26/11/2019 17:47:51] !comprar skillclub
[26/11/2019 17:47:52] !comprar skillclub
[26/11/2019 17:47:53] !comprar skillclub
[26/11/2019 17:48:20] !comprar skillshielding10
[26/11/2019 17:48:21] !comprar skillshielding10
[26/11/2019 17:48:21] !comprar skillshielding10
[26/11/2019 17:48:22] !comprar skillshielding10
[26/11/2019 17:48:23] !comprar skillshielding10
[26/11/2019 17:48:24] !comprar skillshielding10
[26/11/2019 17:48:25] !comprar skillshielding10
[26/11/2019 17:48:26] !comprar skillshielding10
[26/11/2019 17:48:27] !comprar skillshielding10
[26/11/2019 17:48:28] !comprar skillshielding10
[26/11/2019 17:48:29] !comprar skillshielding10
[26/11/2019 17:48:30] !comprar skillshielding10
[26/11/2019 17:48:31] !comprar skillshielding10
[26/11/2019 17:48:32] !comprar skillshielding10
[26/11/2019 17:48:33] !comprar skillshielding10
[26/11/2019 17:48:34] !comprar skillshielding10
[26/11/2019 17:48:35] !comprar skillshielding10
[26/11/2019 17:48:36] !comprar skillshielding10
[26/11/2019 17:48:38] !comprar skillshielding10
[26/11/2019 17:48:39] !comprar skillshielding10
[26/11/2019 17:48:40] !comprar skillshielding10
[26/11/2019 17:48:40] !comprar skillshielding10
[26/11/2019 17:48:41] !comprar skillshielding10
[26/11/2019 17:48:42] !comprar skillshielding10
[26/11/2019 17:48:43] !comprar skillshielding10
[26/11/2019 17:48:44] !comprar skillshielding10
[26/11/2019 17:48:45] !comprar skillshielding10
[26/11/2019 17:48:46] !comprar skillshielding10
[26/11/2019 17:48:46] !comprar skillshielding10
[26/11/2019 17:48:47] !comprar skillshielding10
[26/11/2019 17:48:49] !comprar skillshielding10
[26/11/2019 17:48:50] !comprar skillshielding10
[26/11/2019 17:48:51] !comprar skillshielding10
[26/11/2019 17:48:54] !comprar skillshielding10
[26/11/2019 17:48:55] !comprar skillshielding10
[26/11/2019 17:48:57] !shielding
