[26/11/2019 12:25:20] !comprar
[26/11/2019 12:42:55] !comprar
[26/11/2019 12:43:03] !comprar super divine staff
[26/11/2019 13:01:07] !mana El Diablo
[26/11/2019 13:01:15] !resetar
[26/11/2019 13:10:55] !comprar
[26/11/2019 13:11:05] !comprar vip10
[26/11/2019 13:11:41] !resetar
[26/11/2019 13:17:24] !online
[26/11/2019 13:38:22] !resetar
[26/11/2019 13:39:01] !resetar
[26/11/2019 13:43:20] !mana
[26/11/2019 13:43:21] !vida
[26/11/2019 14:06:05] !mana
[26/11/2019 14:07:14] !frags
[27/11/2019 11:52:16] !resetar
[27/11/2019 11:52:23] !resetar
[27/11/2019 12:28:18] !mana
[27/11/2019 12:30:46] !mana
[27/11/2019 12:43:42] !resetar
[27/11/2019 12:47:48] !comprar magiclevel5
[27/11/2019 12:47:50] !comprar magiclevel5
[27/11/2019 12:47:50] !comprar magiclevel5
[27/11/2019 12:47:51] !comprar magiclevel5
[27/11/2019 12:47:53] !comprar magiclevel5
[27/11/2019 12:47:55] !comprar magiclevel5
[27/11/2019 12:47:56] !comprar magiclevel5
[27/11/2019 12:47:57] !comprar magiclevel5
[27/11/2019 12:47:58] !comprar magiclevel5
[27/11/2019 12:47:58] !comprar magiclevel5
[27/11/2019 12:47:59] !comprar magiclevel5
[27/11/2019 12:48:00] !comprar magiclevel5
[27/11/2019 12:48:01] !comprar magiclevel5
[27/11/2019 12:48:02] !comprar magiclevel5
[27/11/2019 12:48:03] !comprar magiclevel5
[27/11/2019 12:48:03] !comprar magiclevel5
[27/11/2019 12:48:04] !comprar magiclevel5
[27/11/2019 12:48:05] !comprar magiclevel5
[27/11/2019 12:48:06] !comprar magiclevel5
[27/11/2019 12:48:07] !comprar magiclevel5
[27/11/2019 12:48:08] !comprar magiclevel5
[27/11/2019 12:48:09] !comprar magiclevel5
[27/11/2019 12:48:09] !comprar magiclevel5
[27/11/2019 12:48:10] !comprar magiclevel5
[27/11/2019 12:48:11] !comprar magiclevel5
[27/11/2019 12:48:12] !comprar magiclevel5
[27/11/2019 12:48:14] !comprar magiclevel
[27/11/2019 12:48:16] !comprar magiclevel
[27/11/2019 12:48:16] !comprar magiclevel
[27/11/2019 12:48:21] !comprar
[27/11/2019 12:48:59] !comprar
[27/11/2019 12:56:41] !resetar
[27/11/2019 13:03:17] !mana
[27/11/2019 13:03:46] !resetar
[27/11/2019 13:08:11] !resetar
[27/11/2019 13:14:31] !mana
[27/11/2019 13:16:35] !mana
[27/11/2019 13:17:12] !mana
[27/11/2019 13:18:12] !mana
[27/11/2019 13:19:32] !online
[27/11/2019 13:23:37] !mana
[27/11/2019 13:24:18] !mana
[27/11/2019 13:34:18] !mana caneta azul
[27/11/2019 13:35:46] !mana
[27/11/2019 13:36:26] !mana Caneta Azul
[27/11/2019 13:37:19] !mana Caneta Azul
[27/11/2019 13:38:19] !mana caneta azul
[27/11/2019 13:39:36] !mana caneta azul
[27/11/2019 13:40:30] !mana caneta azul
[27/11/2019 13:40:39] !mana caneta azul
[27/11/2019 13:41:24] !mana caneta azul
[27/11/2019 13:41:46] !mana caneta azul
[27/11/2019 13:41:56] !mana caneta azul
[27/11/2019 13:41:58] !mana caneta azul
[27/11/2019 13:41:59] !mana caneta azul
[27/11/2019 13:42:00] !mana caneta azul
[27/11/2019 13:42:50] !mana caneta azul
[27/11/2019 13:59:05] S2
[27/11/2019 14:00:09] !mana
[27/11/2019 14:00:28] !resetar
