[26/11/2019 16:41:02] !comprar
[26/11/2019 16:44:30] !comprar
[26/11/2019 16:49:54] !comprar
[26/11/2019 16:50:07] !comprar super divine staff
[26/11/2019 17:02:19] !comprar
[26/11/2019 17:02:27] !comprar livro nivel 6
[26/11/2019 17:03:31] !comprar
[26/11/2019 17:03:41] !comprar magiclevel5
[26/11/2019 17:03:43] !comprar magiclevel5
[26/11/2019 17:03:44] !comprar magiclevel5
[26/11/2019 17:03:45] !comprar magiclevel5
[26/11/2019 17:08:14] !comprar magiclevel5
[26/11/2019 17:08:14] !comprar magiclevel5
[26/11/2019 17:08:15] !comprar magiclevel5
[26/11/2019 17:08:16] !comprar magiclevel5
[26/11/2019 17:08:19] !comprar magiclevel5
[26/11/2019 17:20:52] !comprar
[26/11/2019 17:20:59] !comprar skillshielding10 
[26/11/2019 17:21:02] !comprar magiclevel5
[26/11/2019 17:21:03] !comprar magiclevel5
[26/11/2019 17:21:04] !comprar magiclevel5
[26/11/2019 17:21:05] !comprar magiclevel5
[26/11/2019 17:21:06] !comprar magiclevel5
[26/11/2019 17:21:06] !comprar magiclevel5
[26/11/2019 17:21:07] !comprar magiclevel5
[26/11/2019 17:21:08] !comprar magiclevel5
[26/11/2019 17:21:09] !comprar magiclevel5
[26/11/2019 17:21:10] !comprar magiclevel5
[26/11/2019 17:21:18] !comprar magiclevel5
[26/11/2019 17:21:19] !comprar magiclevel5
[26/11/2019 17:21:20] !comprar magiclevel5
[26/11/2019 17:21:21] !comprar magiclevel5
[26/11/2019 17:21:24] !comprar magiclevel5
